{"preprocess": {"gridMapInput": {"windU": "100u", "windV": "100v", "blh": "blh", "fsr": "fsr"},
				"gridMapTarget": {"windU": "100u", "windV": "100v"}, 
				"gridMapSfc": {"z": "z", "seaMask": "lsm"}, 
				"exportGridsInput": ["windU", "windV", "blh", "fsr"],
                "exportGridsTarget": ["windU", "windV"],
				"exportGridsSfc": ["z", "seaMask"],
				"monthsTraining": [[1, 2018], [12,2018]],
				"monthsTest": [[1, 2019], [1, 2019]],
				"padding": true,
				"pathTraining": "data/training_new",
				"pathTest": "data/test",
				"pathRaw": "data/raw"
			},
"data":  	{	"maxNumFiles": 10000,
				"gridsInput": ["windU", "windV", "seaMask", "z"],
				"gridsTarget": ["windU", "windV"],
				"validationMode": "hourly",
				"validationInput": 6,
				"useHROrography": false
},
"training": {	"network": "UNet", 
				"initMethod": "normal",
				"epochs": 1000, 
				"batchSize": 30, 
				"inputChannels": 64, 
				"saveEveryNthEpoch": 10, 
				"seed": 50,
				"gpu": 0
			}, 
"optimizer":{	"learningRate": 0.001, 
				"betas": [0.9, 0.999],
				"decayLearningRate": true, 
				"LRExpFactor": -1
			}, 
"scheduler":{	"type": "plateau", 
				"steps": 20, 
				"gamma": 0.8
			},
"annealer": {	"eps_start": 0.0,
				"eps_end": 1.0,
				"epochs": 50,
				"offset": 3
			},
"debugging":{	"printNetworkDetails": false, 
				"printImages": true, 
				"printRealLoss": false, 
				"printUpsamplingLoss": true
			}
}
