configOptions = {'data': {'preprocess': True,
                          'gridMapInput': {'windU': '100u', 'windV': '100v', 'blh': 'blh', 'fsr': 'fsr'},
                          'gridMapTarget': {'windU': '100u', 'windV': '100v'},
                          'gridMapSfc': {'z': 'z', 'seaMask': 'lsm'},
                          'exportGrids': ['windU', 'windV', 'blh'],
                          'exportGridsSfc': ['z', 'seaMask'],
                          'useHROrography': True,
                          'maxNumFiles': 10000,
                          'monthsTraining': (1, 12, 2018),
                          'monthsTest': (1, 1, 2019),
                          'validationMode': 'hourly',
                          'validationInput': 6},  # either integer for hourly or array for 'monthly'
                 'training': {'network': 'UNet',
                              'initMethod': 'xavier',
                              'gridsInput': ['windU', 'windV', 'seaMask', 'z'],
                              'gridsTarget': ['windU', 'windV'],
                              'epochs': 1000,
                              'batchSize': 30,
                              'inputChannels': 64,
                              'saveEveryNthEpoch': 10,
                              'seed': 42},
                 'optimizer': {'learningRate': 0.001,
                               'betas': (0.5, 0.999),
                               'decayLearningRate': True,
                               'LRExpFactor': -1},
                 'scheduler': {'type': 'plateau',
                               'steps': 20,
                               'gamma': 0.8},
                 'debugging': {'printNetworkDetails': False,
                               'printImages': True,
                               'printRealLoss': False,
                               'printUpsamplingLoss': True}}
